{
  "Australia News Corp": {
    "domain": "###_au_news_corp",
    "group": [
      "adelaidenow.com.au",
      "cairnspost.com.au",
      "codesports.com.au",
      "couriermail.com.au",
      "dailytelegraph.com.au",
      "geelongadvertiser.com.au",
      "goldcoastbulletin.com.au",
      "heraldsun.com.au",
      "ntnews.com.au",
      "theaustralian.com.au",
      "thechronicle.com.au",
      "themercury.com.au",
      "townsvillebulletin.com.au",
      "weeklytimesnow.com.au"
    ],
    "allow_cookies": 1,
    "block_regex": "(\\.com\\.au\\/remote\\/identity\\/rampart\\/latest\\/rampart\\.js|cdn\\.ampproject\\.org\\/v\\d\\/amp-(access|(sticky-)?ad|subscriptions)-.+\\.js)",
    "amp_unhide": 1
  },
  "Berliner Zeitung": {
    "domain": "berliner-zeitung.de",
    "allow_cookies": 1,
    "block_regex": "cdn\\.ampproject\\.org\\/v\\d\\/amp-(ad|fx-flying-carpet|subscriptions)-.+\\.js"
  },
  "Le Nouvel Economiste": {
    "domain": "lenouveleconomiste.fr",
    "allow_cookies": 1,
    "useragent": "googlebot"
  },
  "Münstersche Zeitung": {
    "allow_cookies": 1,
    "domain": "muensterschezeitung.de",
    "block_regex": "cdn\\.ampproject\\.org\\/v\\d\\/amp-(ad|subscriptions)-.+\\.js",
    "amp_redirect": {
      "paywall": ".fp-article-paywall"
    },
    "amp_unhide": 1
  },
  "Nürnberger Nachrichten": {
    "domain": "nn.de",
    "block_regex": "(cdn\\.cxense\\.com\\/|\\.piano\\.io\\/)"
  },
  "S&P Global": {
    "domain": "spglobal.com",
    "allow_cookies": 1,
    "block_regex": "\\.blueconic\\.net\\/",
    "cs_code": [{
        "cond": ".article__overlay",
        "rm_elem": 1
      }, {
        "cond": "html[class]",
        "rm_attrib": "class"
      }
    ]
  },
  "Westdeutsche Zeitung": {
    "allow_cookies": 1,
    "domain": "wz.de",
    "useragent": "googlebot"
  }
}
